23.12.2015 10:13:33 [main] FATAL by.bsu.khrapko.creator.FileHandler  - File is not found
23.12.2015 10:15:56 [main] FATAL by.bsu.khrapko.creator.FileHandler  - File is not found
23.12.2015 10:21:09 [main] FATAL by.bsu.khrapko.creator.FileHandler  - File is not found
23.12.2015 10:21:09 [main] INFO  by.bsu.khrapko.main.Solution  - Ok
